Dataset,Num of Records,Anomaly(%),Time Stamp,Categorical Features,Numeric Features,AUC SOTA,Alpha,AUC ,Time(in sec),Min,Max,Mean,Std,Hypothesis,Observation
UNSW,2.5 million,12.65,Stime,master,master,0.86,0.01,0.75,15,12.8,29.7,18.1,2.1,,
UNSW,2.5 million,12.65,Stime,master,master,0.86,1,0.74,15,13.6,29.7,18.3,2,,
UNSW,2.5 million,12.65,Stime,master,master,0.86,0.2,0.74,15,13.9,29.7,18.6,2,,
UNSW,2.5 million,12.65,Stime,master,master,0.86,0.4,0.72,15,14.9,29.7,19.1,1.9,,
UNSW,2.5 million,12.65,Stime,master,master,0.86,0.8,0.67,32,16,30,21.2,1.7,,
UNSW,2.5 million,12.65,Stime-min(Stime),master,master,0.86,0.01,0.85,15,0,21,9.5,3,,
UNSW,2.5 million,12.65,Stime-min(Stime),master,master,0.86,0.1,0.86,15,0,21,9.6,3,,
UNSW,2.5 million,12.65,Stime-min(Stime),master,master,0.86,0.2,0.86,16,0,21,9.8,3,,
UNSW,2.5 million,12.65,Stime-min(Stime),master,master,0.86,0.4,0.85,15,0,21,10.4,2.9,,
UNSW,2.5 million,12.65,Stime-min(Stime),master,master,0.86,0.8,0.83,32,0,21.1,12.5,2.6,,
UNSW,2.5 million,12.65,Stime-min(Stime),master,master,0.86,0.85,0.82,31,0,21.9,13.1,2.6,,
UNSW,2.5 million,12.65,Stime-min(Stime),master,master,0.86,0.9,0.82,39,0,21.6,13.9,2.5,,
UNSW,2.5 million,12.65,Stime-min(Stime),master,master,0.86,0.95,0.81,28,0,22.6,15.2,2.5,,
UNSW,2.5 million,12.65,sequenceId,master,master,0.86,0.2,0.65,71,0,16.1,8.9,1.1,,
UNSW,2.5 million,12.65,sequenceId,master,master,0.86,0.4,0.69,75,0,16.1,9,1.1,,
UNSW,2.5 million,12.65,sequenceId,master,master,0.86,0.6,0.75,993,0,16.3,9.2,1.2,,
UNSW,2.5 million,12.65,sequenceId,master,master,0.86,0.8,0.8,923,0,16.9,9.6,1.3,,
UNSW,2.5 million,12.65,sequenceId,master,master,0.86,0.9,0.82,892,0,17.4,10.2,1.4,,
UNSW,2.5 million,12.65,sequenceId,master,master,0.86,0.95,0.81,800,0,18,10.9,1.5,,
UNSW,2.5 million,12.65,sequenceId,master,master,0.86,0.99,0.73,705,0,19,13,1.3,,
SUA,366,18,sequenceId,master,"[""epochTime""]",NA,0.1,1,<1,0,6,0.9,1.7,,
SUA,366,18,sequenceId,master,"[""epochTime""]",NA,0.2,1,<1,0,6,1.1,1.6,,
SUA,366,18,sequenceId,master,"[""epochTime""]",NA,0.4,1,<1,0,6,1.8,1.3,,
SUA,366,18,sequenceId,master,"[""epochTime""]",NA,0.8,0.98,<1,0,6.1,4.4,0.5,,
SUA,366,18,sequenceId,master,"[""epochTime""]",NA,0.9,0.37,<1,0,6.7,5.8,0.5,,
SUA,366,18,sequenceId,master,master,NA,0.01,0.94,<1,0,6.8,1.3,2.1,,
SUA,366,18,sequenceId,master,master,NA,0.1,0.94,<1,0,6.8,1.4,2,,
SUA,366,18,sequenceId,master,master,NA,0.2,0.94,<1,0,6.9,1.7,1.9,,
SUA,366,18,sequenceId,master,master,NA,0.4,0.94,<1,0,7.2,2.6,1.5,,
SUA,366,18,sequenceId,master,master,NA,0.8,0.92,<1,0,8.5,5.3,0.8,,
SUA,366,18,sequenceId,master,master,NA,0.9,0.37,<1,0,8.4,6.7,0.7,,
SUA,366,18,sequenceId,master,"[""minutes""]",NA,0.4,1,<1,0,6,1.8,1.3,,
SUA,366,18,sequenceId,master,"[""minutes""]",NA,0.5,1,<1,0,6,2.2,1.1,,
SUA,366,18,sequenceId,master,"[""minutes""]",NA,0.8,0.98,<1,0,6.1,4.4,0.5,,
SUA,366,18,epochTime,master,"[""hour"", ""minutes""]",NA,0.01,0.96,<1,17.1,23,18.6,1.3,,
SUA,366,18,epochTime,master,"[""hour"", ""minutes""]",NA,0.1,0.95,<1,17.3,23,18.8,1.3,,
SUA,366,18,epochTime,master,"[""hour"", ""minutes""]",NA,0.2,0.94,<1,17.5,23,19,1.2,,
SUA,366,18,epochTime,master,"[""hour"", ""minutes""]",NA,0.4,0.91,<1,18,23,19.4,1.1,,
SUA,366,18,epochTime,master,"[""hour"", ""minutes""]",NA,0.8,0.63,<1,20.2,23.8,21.3,0.9,,
SUA,366,18,epochTime,master,"[""hour"", ""minutes""]",NA,0..9,0.43,<1,21.5,24.4,22.5,0.8,,
SUA,366,18,epochTime-min(epochTime),master,"[""hour"", ""minutes""]",NA,0.1,1,<1,0,17.3,13.8,1.2,,
SUA,366,18,epochTime-min(epochTime),master,"[""hour"", ""minutes""]",NA,0.2,1,<1,0,17.4,14,1.2,,
SUA,366,18,epochTime-min(epochTime),master,"[""hour"", ""minutes""]",NA,0.4,1,<1,0,17.4,14.3,1,,
SUA,366,18,epochTime-min(epochTime),master,"[""hour"", ""minutes""]",NA,0.8,0.97,<1,0,17.6,16.3,0.9,,
SUA,366,18,epochTime-min(epochTime),master,"[""hour"", ""minutes""]",NA,0..9,0.3,<1,0,18.2,17.6,1,,