{
  "numeric": ["dur", "sbytes", "dbytes", "sttl", "dttl", "sloss", "dloss",
    "Sload", "Dload", "Spkts", "Dpkts", "swin", "dwin", "stcpb", "dtcpb", "smeansz",
    "dmeansz", "trans_depth", "res_bdy_len", "Sjit", "Djit", "Stime", "Ltime",
    "Sintpkt", "Dintpkt", "tcprtt", "synack", "ackdat", "ct_state_ttl", "ct_srv_src",
    "ct_srv_dst", "ct_dst_ltm", "ct_src_ ltm", "ct_src_dport_ltm", "ct_dst_sport_ltm",
    "ct_dst_src_ltm"],
  "categorical": ["srcip", "dstip", "proto", "state", "service", "is_sm_ips_ports"],
  "numeric_master": ["dur", "sbytes", "dbytes", "sttl", "dttl", "sloss", "dloss",
    "Sload", "Dload", "Spkts", "Dpkts", "swin", "dwin", "stcpb", "dtcpb", "smeansz",
    "dmeansz", "trans_depth", "res_bdy_len", "Sjit", "Djit", "Stime", "Ltime",
    "Sintpkt", "Dintpkt", "tcprtt", "synack", "ackdat", "ct_state_ttl", "ct_srv_src",
    "ct_srv_dst", "ct_dst_ltm", "ct_src_ ltm", "ct_src_dport_ltm", "ct_dst_sport_ltm",
    "ct_dst_src_ltm"],
  "categorical_master": ["srcip", "dstip", "proto", "state", "service", "is_sm_ips_ports"],
  "columns_with_nan": ["sport", "dsport", "ct_flw_http_mthd", "is_ftp_login", "ct_ftp_cmd",
    "attack_cat"]
}